{
  "page": 1,
  "limit": 20,
  "totalCount": 200,
  "totalPages": 5,
  "data": [
    {
      "id": "uuid1",
      "name": "Jhon Doe Doe",
      "username": "JhonDoe",
      "image": "https://via.placeholder.com/150",
      "email": "jhonDoe@gmail.com",
      "role": "ADMIN",
      "rank": 2000,
      "highestScore": 75,
      "isBlocked": false
    },
    {
      "id": "uuid2",
      "name": "Jane Smith",
      "username": "JaneS",
      "image": "https://via.placeholder.com/150",
      "email": "janeS@gmail.com",
      "role": "PLAYER",
      "rank": 1500,
      "highestScore": 90,
      "isBlocked": false
    },
    {
      "id": "uuid3",
      "name": "Michael Johnson",
      "username": "MikeJ",
      "image": "https://via.placeholder.com/150",
      "email": "mikeJ@gmail.com",
      "role": "PLAYER",
      "rank": 1800,
      "highestScore": 88,
      "isBlocked": false
    },
    {
      "id": "uuid4",
      "name": "Emily Davis",
      "username": "EmilyD",
      "image": "https://via.placeholder.com/150",
      "email": "emilyD@gmail.com",
      "role": "ADMIN",
      "rank": 2200,
      "highestScore": 95,
      "isBlocked": true
    },
    {
      "id": "uuid5",
      "name": "Chris Brown",
      "username": "ChrisB",
      "image": "https://via.placeholder.com/150",
      "email": "chrisB@gmail.com",
      "role": "PLAYER",
      "rank": 1700,
      "highestScore": 65,
      "isBlocked": false
    },
    {
      "id": "uuid6",
      "name": "Jessica Miller",
      "username": "JessM",
      "image": "https://via.placeholder.com/150",
      "email": "jessM@gmail.com",
      "role": "PLAYER",
      "rank": 1900,
      "highestScore": 110,
      "isBlocked": false
    },
    {
      "id": "uuid7",
      "name": "Daniel Wilson",
      "username": "DanW",
      "image": "https://via.placeholder.com/150",
      "email": "danW@gmail.com",
      "role": "ADMIN",
      "rank": 1600,
      "highestScore": 78,
      "isBlocked": true
    },
    {
      "id": "uuid8",
      "name": "Sarah Moore",
      "username": "SarahM",
      "image": "https://via.placeholder.com/150",
      "email": "sarahM@gmail.com",
      "role": "PLAYER",
      "rank": 2100,
      "highestScore": 130,
      "isBlocked": false
    },
    {
      "id": "uuid9",
      "name": "David Taylor",
      "username": "DaveT",
      "image": "https://via.placeholder.com/150",
      "email": "daveT@gmail.com",
      "role": "PLAYER",
      "rank": 2000,
      "highestScore": 125,
      "isBlocked": false
    },
    {
      "id": "uuid10",
      "name": "Megan Anderson",
      "username": "MegA",
      "image": "https://via.placeholder.com/150",
      "email": "meganA@gmail.com",
      "role": "ADMIN",
      "rank": 1400,
      "highestScore": 150,
      "isBlocked": true
    },
    {
      "id": "uuid11",
      "name": "Joshua Thomas",
      "username": "JoshT",
      "image": "https://via.placeholder.com/150",
      "email": "joshT@gmail.com",
      "role": "PLAYER",
      "rank": 1750,
      "highestScore": 135,
      "isBlocked": false
    },
    {
      "id": "uuid12",
      "name": "Olivia Jackson",
      "username": "OliviaJ",
      "image": "https://via.placeholder.com/150",
      "email": "oliviaJ@gmail.com",
      "role": "PLAYER",
      "rank": 2300,
      "highestScore": 145,
      "isBlocked": false
    },
    {
      "id": "uuid13",
      "name": "Matthew White",
      "username": "MattW",
      "image": "https://via.placeholder.com/150",
      "email": "mattW@gmail.com",
      "role": "ADMIN",
      "rank": 1300,
      "highestScore": 85,
      "isBlocked": true
    },
    {
      "id": "uuid14",
      "name": "Sophia Harris",
      "username": "SophH",
      "image": "https://via.placeholder.com/150",
      "email": "sophH@gmail.com",
      "role": "PLAYER",
      "rank": 2400,
      "highestScore": 160,
      "isBlocked": false
    },
    {
      "id": "uuid15",
      "name": "Ryan Lee",
      "username": "RyanL",
      "image": "https://via.placeholder.com/150",
      "email": "ryanL@gmail.com",
      "role": "ADMIN",
      "rank": 1350,
      "highestScore": 120,
      "isBlocked": true
    },
    {
      "id": "uuid16",
      "name": "Abigail Walker",
      "username": "AbbyW",
      "image": "https://via.placeholder.com/150",
      "email": "abbyW@gmail.com",
      "role": "PLAYER",
      "rank": 2500,
      "highestScore": 170,
      "isBlocked": false
    },
    {
      "id": "uuid17",
      "name": "James Hall",
      "username": "JamesH",
      "image": "https://via.placeholder.com/150",
      "email": "jamesH@gmail.com",
      "role": "PLAYER",
      "rank": 2250,
      "highestScore": 155,
      "isBlocked": false
    },
    {
      "id": "uuid18",
      "name": "Isabella Lewis",
      "username": "BellaL",
      "image": "https://via.placeholder.com/150",
      "email": "bellaL@gmail.com",
      "role": "ADMIN",
      "rank": 1200,
      "highestScore": 145,
      "isBlocked": true
    },
    {
      "id": "uuid19",
      "name": "Chloe Scott",
      "username": "ChloeS",
      "image": "https://via.placeholder.com/150",
      "email": "chloeS@gmail.com",
      "role": "PLAYER",
      "rank": 2600,
      "highestScore": 180,
      "isBlocked": false
    },
    {
      "id": "uuid20",
      "name": "Andrew Clark",
      "username": "AndyC",
      "image": "https://via.placeholder.com/150",
      "email": "andyC@gmail.com",
      "role": "ADMIN",
      "rank": 1450,
      "highestScore": 80,
      "isBlocked": true
    }
  ]
}
