{
  "page": 1,
  "limit": 20,
  "totalCount": 200,
  "totalPages": 5,
  "data": [
    {
      "name": "David Taylor",
      "username": "DaveT",
      "image": "https://i.pravatar.cc/150?u=DaveT",
      "email": "davidT@gmail.com",
      "game": "Fortnite",
      "highestScore": 284
    },
    {
      "name": "Andrew Clark",
      "username": "AndyC",
      "image": "https://i.pravatar.cc/150?u=AndyC",
      "email": "andrewC@gmail.com",
      "game": "Fortnite",
      "highestScore": 266
    },
    {
      "name": "Chloe Scott",
      "username": "ChloeS",
      "image": "https://i.pravatar.cc/150?u=ChloeS",
      "email": "chloeS@gmail.com",
      "game": "Fortnite",
      "highestScore": 247
    },
    {
      "name": "Jane Smith",
      "username": "JaneSmith",
      "image": "https://i.pravatar.cc/150?u=JaneSmith",
      "email": "janeSmith@gmail.com",
      "game": "Fortnite",
      "highestScore": 245
    },
    {
      "name": "Sophia Harris",
      "username": "SophH",
      "image": "https://i.pravatar.cc/150?u=SophH",
      "email": "sophiaH@gmail.com",
      "game": "Fortnite",
      "highestScore": 95
    },
    {
      "name": "Sarah Moore",
      "username": "SarahM",
      "image": "https://i.pravatar.cc/150?u=SarahM",
      "email": "sarahM@gmail.com",
      "game": "Fortnite",
      "highestScore": 210
    },
    {
      "name": "Megan Anderson",
      "username": "MegA",
      "image": "https://i.pravatar.cc/150?u=MegA",
      "email": "meganA@gmail.com",
      "game": "Fortnite",
      "highestScore": 54
    },
    {
      "name": "Michael Johnson",
      "username": "MikeJ",
      "image": "https://i.pravatar.cc/150?u=MikeJ",
      "email": "mikeJ@gmail.com",
      "game": "Fortnite",
      "highestScore": 312
    },
    {
      "name": "Chris Brown",
      "username": "ChrisB",
      "image": "https://i.pravatar.cc/150?u=ChrisB",
      "email": "chrisB@gmail.com",
      "game": "Fortnite",
      "highestScore": 89
    },
    {
      "name": "Jessica Miller",
      "username": "JessM",
      "image": "https://i.pravatar.cc/150?u=JessM",
      "email": "jessicaM@gmail.com",
      "game": "Fortnite",
      "highestScore": 157
    },
    {
      "name": "Daniel Wilson",
      "username": "DanW",
      "image": "https://i.pravatar.cc/150?u=DanW",
      "email": "danW@gmail.com",
      "game": "Fortnite",
      "highestScore": 192
    },
    {
      "name": "Ryan Lee",
      "username": "RyanL",
      "image": "https://i.pravatar.cc/150?u=RyanL",
      "email": "ryanL@gmail.com",
      "game": "Fortnite",
      "highestScore": 198
    },
    {
      "name": "Abigail Walker",
      "username": "AbbyW",
      "image": "https://i.pravatar.cc/150?u=AbbyW",
      "email": "abbyW@gmail.com",
      "game": "Fortnite",
      "highestScore": 220
    },
    {
      "name": "Olivia Jackson",
      "username": "LivJ",
      "image": "https://i.pravatar.cc/150?u=LivJ",
      "email": "oliviaJ@gmail.com",
      "game": "Fortnite",
      "highestScore": 215
    },
    {
      "name": "Joshua Thomas",
      "username": "JoshT",
      "image": "https://i.pravatar.cc/150?u=JoshT",
      "email": "joshT@gmail.com",
      "game": "Fortnite",
      "highestScore": 142
    },
    {
      "name": "Matthew White",
      "username": "MattW",
      "image": "https://i.pravatar.cc/150?u=MattW",
      "email": "mattW@gmail.com",
      "game": "Fortnite",
      "highestScore": 179
    },
    {
      "name": "Isabella Lewis",
      "username": "BellaL",
      "image": "https://i.pravatar.cc/150?u=BellaL",
      "email": "bellaL@gmail.com",
      "game": "Fortnite",
      "highestScore": 87
    },
    {
      "name": "James Hall",
      "username": "JamesH",
      "image": "https://i.pravatar.cc/150?u=JamesH",
      "email": "jamesH@gmail.com",
      "game": "Fortnite",
      "highestScore": 129
    },
    {
      "name": "Jhon Doe Doe",
      "username": "JhonDoe",
      "image": "https://i.pravatar.cc/150?u=JhonDoe",
      "email": "jhonDoe@gmail.com",
      "game": "Fortnite",
      "highestScore": 152
    }
  ]
}
